2024-03-07 19:23:58.611 +02:00 [INF] Now listening on: https://localhost:5001
2024-03-07 19:24:31.815 +02:00 [INF] Now listening on: http://localhost:5000
2024-03-07 19:24:31.824 +02:00 [INF] Application started. Press Ctrl+C to shut down.
2024-03-07 19:24:31.839 +02:00 [INF] Hosting environment: Development
2024-03-07 19:24:31.843 +02:00 [INF] Content root path: C:\Users\zigma\OneDrive\Desktop\backup\231228csh200vak\lesson33\EmployeesApi
